…
date_period <- as.Date(c("2009-06-14", "2009-11-22"))
sari_41002 <- sari |>
    rename_with(tolower) |>
    mutate(date = get_date(week = epiweek, year = epiyear, start = 7)) |>
    filter(regionalsaude == 41002, date >= date_period[1], date <= date_period[2]) |>
    select(- c("epiweek", "epiyear", "regionalsaude")) |>
    rename_with(function(x) gsub("d", "delay", x), d0:d26) |>
    relocate(notifications_within_26w, notifications, .after = last_col())

Compute the cumulative number of cases.

sari_41002[, 1:27] <- t(apply(as.matrix(sari_41002[, 1:27]), 1, cumsum))
sari_41002

#> # A tibble: 24 × 30
#>    delay0 delay1 delay2 delay3 delay4 delay5 delay6 delay7 delay8 delay9 delay10 delay11 delay12
#>     <dbl>  <dbl>  <dbl>  <dbl>  <dbl>  <dbl>  <dbl>  <dbl>  <dbl>  <dbl>   <dbl>   <dbl>   <dbl>
#>  1      0      3      3      3      3      3      3      6      7      7       7       8       8
#>  2      2      4      5      7      7      9     12     15     15     16      16      16      16
#>  3      2     13     17     21     22     30     35     39     39     41      41      41      41
#>  4     14     16     17     18     19     22     23     25     26     26      27      27      27
#>  5      2     11     11     25     39     47     53     56     58     58      58      58      59
#>  6      2     18     91    154    179    198    204    207    207    207     209     209     209
#>  7     32    329    463    519    550    559    567    572    575    578     579     581     586
#>  8    272    563    749    932   1025   1061   1080   1088   1094   1102    1109    1140    1167
#>  9    183    549    767    893    974   1050   1071   1091   1112   1119    1132    1146    1152
#> 10    145    417    510    573    643    667    681    699    738    748     757     761     766
#> # ℹ 14 more rows
#> # ℹ 17 more variables: delay13 <dbl>, delay14 <dbl>, delay15 <dbl>, delay16 <dbl>, delay17 <dbl>,
#> #   delay18 <dbl>, delay19 <dbl>, delay20 <dbl>, delay21 <dbl>, delay22 <dbl>, delay23 <dbl>,
#> #   delay24 <dbl>, delay25 <dbl>, delay26 <dbl>, date <date>, notifications_within_26w <dbl>,
#> #   notifications <dbl>
…
