…
sari_mcmc <- readRDS(file.path(path_modelled, "sari_20090614_20091122_mcmc.rds"))
names(sari_mcmc)

#> [1] "2009-08-02" "2009-08-30" "2009-09-27" "2009-10-25" "2009-11-22"

Sari data in long format

last_date <- max(sari$date)
sari_long <- reporcases_longer(sari) |>
    mutate(available_delay = floor(as.numeric(last_date - date) / 7 )) |>
    filter(delay <= available_delay)
sari_long

#> # A tibble: 300 × 6
#>    date       notifications_within_26w notifications delay cases available_delay
#>    <date>                        <dbl>         <dbl> <dbl> <dbl>           <dbl>
#>  1 2009-06-14                        8             8     0     0              23
#>  2 2009-06-14                        8             8     1     3              23
#>  3 2009-06-14                        8             8     2     3              23
#>  4 2009-06-14                        8             8     3     3              23
#>  5 2009-06-14                        8             8     4     3              23
#>  6 2009-06-14                        8             8     5     3              23
#>  7 2009-06-14                        8             8     6     3              23
#>  8 2009-06-14                        8             8     7     6              23
#>  9 2009-06-14                        8             8     8     7              23
#> 10 2009-06-14                        8             8     9     7              23
#> # ℹ 290 more rows
…
We select the last period which include all the data, and obtain predictive mean for all
models in long format data frame.

# select model for date
index <- length(sari_mcmc)
first_date <- min(sari$date)
last_date <- as.Date(names(sari_mcmc)[index])
dates <- seq(first_date, last_date, by = "1 week")

# prediction in long format
pred_long <- predmean_df(sari_mcmc[[index]], delays = 0:26, dates, "exponential")
pred_long

#> # A tibble: 2,592 × 4
#>    method   date       delay cases
#>    <fct>    <date>     <dbl> <dbl>
#>  1 nonparam 2009-06-14     0  1.26
#>  2 nonparam 2009-06-14     1  3.12
#>  3 nonparam 2009-06-14     2  4.12
#>  4 nonparam 2009-06-14     3  4.87
#>  5 nonparam 2009-06-14     4  5.40
#>  6 nonparam 2009-06-14     5  5.70
#>  7 nonparam 2009-06-14     6  5.94
#>  8 nonparam 2009-06-14     7  6.16
#>  9 nonparam 2009-06-14     8  6.39
#> 10 nonparam 2009-06-14     9  6.48
#> # ℹ 2,582 more rows
…
